{
  "viewports": [
    {
      "name": "phone",
      "width": 320,
      "height": 480
    },
    {
      "name": "tablet_v",
      "width": 568,
      "height": 1024
    },
    {
      "name": "tablet_h",
      "width": 1024,
      "height": 768
    }
  ],
  "scenarios": [
    {
      "label": "Home",
      "url": "http://54.175.26.223/reference",
      "hideSelectors": [],
      "removeSelectors": [],
      "selectors": [
        "header",
        "main",
        "footer",
        "body"
      ],
      "readyEvent": null,
      "delay": 500,
      "misMatchThreshold" : 0.1,
      "onBeforeScript": "onBefore.js",
      "onReadyScript": "onReady.js"
    }
  ],
  "paths": {
    "bitmaps_reference": "../../visual_regression/bitmaps_reference",
    "bitmaps_test": "../../visual_regression/bitmaps_test",
    "compare_data": "../../visual_regression/bitmaps_test/compare.json",
    "casper_scripts": "../../backstop_data/casper_scripts",
    "ci_report" :  "../../visual_regression/ci_report"
  },
  "engine": "phantomjs",
  "report": ["CLI", "CI"],
  "ci": {
    "format" :  "junit" ,
    "testSuiteName" :  "backstopJS"
  },
  "cliExitOnFail": false,
  "casperFlags": [],
  "debug": true,
  "port": 8888
}
